# Blender 3.1.0
# www.blender.org
mtllib gumball_body.mtl
o gumball_body
v -0.643154 1.372749 0.368351
v -0.592564 1.277257 0.812553
v -0.286325 1.404106 0.812553
v -0.311597 1.510084 0.368351
v 0.041906 1.447371 0.812553
v 0.041906 1.556927 0.368351
v 0.041906 1.407445 0.974436
v -0.277115 1.365483 0.974436
v -0.592564 1.277257 0.812553
v -0.574127 1.242457 0.974436
v -0.927868 1.154280 0.368351
v -0.592564 1.277257 0.812553
v -0.855537 1.075471 0.812553
v -1.146336 0.869566 0.368351
v -1.057323 0.812498 0.812553
v -0.829176 1.046750 0.974436
v -1.024883 0.791700 0.974436
v -0.999698 0.775554 1.100115
v -0.808712 1.024453 1.100115
v -1.119757 0.485705 1.100115
v -1.147909 0.494689 0.974436
v -0.818291 0.659251 2.005386
v -1.160707 0.174660 1.100115
v -1.189871 0.175956 0.974436
v -0.916978 0.421000 2.005386
v -0.950638 0.165324 2.005386
v -1.119757 -0.136386 1.100115
v -0.887399 0.413074 2.073303
v -0.920016 0.165324 2.073303
v -0.791771 0.643940 2.073303
v -0.887399 -0.082425 2.073303
v -0.661303 0.863842 2.005386
v -0.999698 0.775554 1.100115
v -0.639650 0.842188 2.073303
v -0.808712 1.024453 1.100115
v -0.916978 -0.090351 2.005386
v -0.791771 -0.313291 2.073303
v -0.456712 1.020830 2.005386
v -0.441401 0.994311 2.073303
v -0.999698 -0.426234 1.100115
v -1.147909 -0.142777 0.974436
v -0.818291 -0.328602 2.005386
v -0.639650 -0.511540 2.073303
v -0.218461 1.119517 2.005386
v -0.210535 1.089939 2.073303
v -0.559813 1.215439 1.100115
v -0.661303 -0.533193 2.005386
v -0.441401 -0.663661 2.073303
v -0.808711 -0.675133 1.100115
v -1.024883 -0.439788 0.974436
v -0.829176 -0.694838 0.974436
v -0.559813 -0.866119 1.100115
v -0.574127 -0.890545 0.974436
v -0.456712 -0.690181 2.005386
v -0.325968 -0.711475 2.073303
v -0.414889 -0.926149 1.100115
v -0.425621 -0.952058 0.974436
v -0.232920 -1.030172 0.923322
v -0.337586 -0.739524 2.005386
v -0.210535 -0.759289 2.073303
v -0.269965 -0.986178 1.100115
v -0.218461 -0.788868 2.005386
v -0.114442 -1.006653 1.100115
v -0.086661 -0.775597 2.073303
v -0.110713 -1.024688 1.022299
v -0.222605 -1.033320 0.917349
v -0.104746 -1.028167 1.012853
v 0.041906 -1.036553 1.058413
v 0.041906 -1.027128 1.100115
v 0.041906 -1.038478 1.044595
v 0.188558 -1.028167 1.012853
v 0.194525 -1.024688 1.022299
v 0.306418 -1.033320 0.917349
v -0.090623 -0.805698 2.005386
v 0.041906 -0.791906 2.073303
v 0.316732 -1.030172 0.923322
v -0.114442 -1.006653 1.100115
v -0.269965 -0.986178 1.100115
v 0.041906 -1.027128 1.100115
v 0.041906 -0.822528 2.005386
v 0.174436 -0.805698 2.005386
v 0.170473 -0.775597 2.073303
v 0.302273 -0.788868 2.005386
v 0.294348 -0.759289 2.073303
v 0.198254 -1.006653 1.100115
v 0.041906 -1.036553 1.058413
v 0.041906 -1.027128 1.100115
v 0.353777 -0.986178 1.100115
v 0.498701 -0.926149 1.100115
v 0.509433 -0.952058 0.974436
v 0.657939 -0.890545 0.974436
v 0.421399 -0.739524 2.005386
v 0.409780 -0.711475 2.073303
v 0.540524 -0.690181 2.005386
v 0.525213 -0.663661 2.073303
v 0.643625 -0.866119 1.100115
v 0.912988 -0.694838 0.974436
v 0.745115 -0.533193 2.005386
v 0.723462 -0.511540 2.073303
v 0.892524 -0.675133 1.100115
v 1.108695 -0.439788 0.974436
v 0.902104 -0.328602 2.005386
v 0.875584 -0.313291 2.073303
v 1.083511 -0.426234 1.100115
v 1.231722 -0.142777 0.974436
v 1.000790 -0.090351 2.005386
v 0.971212 -0.082425 2.073303
v 1.203570 -0.136386 1.100115
v 1.034451 0.165324 2.005386
v 1.003829 0.165324 2.073303
v 1.244519 0.174660 1.100115
v 1.000790 0.421000 2.005386
v 0.971212 0.413074 2.073303
v 0.902104 0.659251 2.005386
v 0.875584 0.643940 2.073303
v 1.203570 0.485705 1.100115
v 0.745116 0.863842 2.005386
v 0.723462 0.842188 2.073303
v 1.083511 0.775554 1.100115
v 0.892524 1.024453 1.100115
v 1.083511 0.775554 1.100115
v 0.540525 1.020830 2.005386
v 0.525213 0.994311 2.073303
v 1.231722 0.494689 0.974436
v 1.273683 0.175956 0.974436
v 1.108695 0.791700 0.974436
v 0.912989 1.046750 0.974436
v 0.892524 1.024453 1.100115
v 1.141135 0.812498 0.812553
v 0.939349 1.075471 0.812553
v 1.230149 0.869566 0.368351
v 1.011680 1.154280 0.368351
v 0.676376 1.277257 0.812553
v 0.726966 1.372749 0.368351
v 1.367483 0.538010 0.368351
v 1.141135 0.812498 0.812553
v 1.267983 0.506260 0.812553
v 1.267983 0.506260 0.812553
v 1.108695 0.791700 0.974436
v 1.231722 0.494689 0.974436
v 1.311248 0.177625 0.812553
v 1.273683 0.175956 0.974436
v 1.267983 -0.151009 0.812553
v 0.676376 1.277257 0.812553
v 0.370137 1.404106 0.812553
v 0.395409 1.510084 0.368351
v 0.041906 1.447371 0.812553
v 0.041906 1.556927 0.368351
v 0.041906 1.407445 0.974436
v 0.360927 1.365483 0.974436
v 0.676376 1.277257 0.812553
v 0.657939 1.242457 0.974436
v 1.108695 -0.439788 0.974436
v 1.141135 -0.457247 0.812553
v 1.267983 -0.151009 0.812553
v 0.939349 -0.720221 0.812552
v 0.912988 -0.694838 0.974436
v 0.676376 -0.922007 0.812552
v 0.657939 -0.890545 0.974436
v 1.230149 -0.505154 0.368351
v 1.367483 -0.173598 0.368350
v 1.011680 -0.789868 0.368350
v 1.311248 0.177625 0.812553
v 0.726966 -1.008337 0.368351
v 1.414326 0.182206 0.368351
v 1.267983 0.506260 0.812553
v 1.367483 0.538010 0.368351
v 0.676376 -0.922007 0.812552
v 0.561188 -1.077004 0.368350
v 0.523257 -0.985431 0.812552
v 0.410400 -1.145672 0.368350
v 0.370137 -1.048854 0.812552
v 0.399219 -1.151936 0.368214
v 0.357886 -1.051022 0.810447
v 0.509433 -0.952058 0.974436
v 0.316732 -1.030172 0.923322
v 0.657939 -0.890545 0.974436
v 0.676376 -0.922007 0.812552
v 0.316732 -1.030172 0.923322
v 0.357886 -1.051022 0.810447
v -1.283671 0.538010 0.368351
v -1.184171 0.506260 0.812553
v -1.057323 0.812498 0.812553
v -1.283671 0.538010 0.368351
v -1.330514 0.182206 0.368351
v -1.184171 0.506260 0.812553
v -1.227436 0.177625 0.812553
v -1.283671 -0.173598 0.368350
v -1.184171 -0.151009 0.812553
v -1.146336 -0.505154 0.368351
v -1.057323 -0.457247 0.812553
v -0.927867 -0.789868 0.368350
v -1.024883 -0.439788 0.974436
v -0.855536 -0.720221 0.812552
v -0.643153 -1.008337 0.368351
v -0.829176 -0.694838 0.974436
v -0.592564 -0.922007 0.812552
v -0.574127 -0.890545 0.974436
v -0.592564 -0.922007 0.812552
v -0.477375 -1.077004 0.368350
v -0.439444 -0.985431 0.812552
v -0.326588 -1.145672 0.368350
v -0.286325 -1.048854 0.812552
v -0.315407 -1.151936 0.368214
v -0.274073 -1.051022 0.810447
v -0.425621 -0.952058 0.974436
v -0.232920 -1.030172 0.923322
v -0.574127 -0.890545 0.974436
v -0.592564 -0.922007 0.812552
v -0.232920 -1.030172 0.923322
v -0.274073 -1.051022 0.810447
v 0.041906 0.514522 2.073303
v 0.041906 1.122555 2.073303
v -0.053165 0.502623 2.073303
v -0.210535 1.089939 2.073303
v -0.137385 0.467738 2.073303
v -0.441401 0.994311 2.073303
v -0.209706 0.412245 2.073303
v -0.639650 0.842188 2.073303
v -0.265200 0.339923 2.073303
v -0.791771 0.643940 2.073303
v -0.300085 0.255703 2.073303
v -0.887399 0.413074 2.073303
v -0.311983 0.165324 2.073303
v -0.920016 0.165324 2.073303
v -0.300085 0.074946 2.073303
v -0.887399 -0.082425 2.073303
v -0.265200 -0.009274 2.073303
v -0.791771 -0.313291 2.073303
v -0.209706 -0.081596 2.073303
v -0.639650 -0.511540 2.073303
v -0.137385 -0.137089 2.073303
v -0.441401 -0.663661 2.073303
v -0.095275 -0.154532 2.073303
v -0.325968 -0.711475 2.073303
v -0.053165 -0.171974 2.073303
v -0.210535 -0.759289 2.073303
v -0.007975 -0.177924 2.073303
v -0.086661 -0.775597 2.073303
v 0.041906 -0.183873 2.073303
v 0.041906 -0.791906 2.073303
v -1.147909 -0.142777 0.974436
v -1.119757 -0.136386 1.100115
v -1.160707 0.174660 1.100115
v -1.189871 0.175956 0.974436
v 0.041906 1.376449 1.100115
v -0.269964 1.335498 1.100115
v 0.041906 1.153177 2.005386
v 0.041906 1.122555 2.073303
v 0.294347 1.089939 2.073303
v 0.302273 1.119517 2.005386
v -0.277115 1.365483 0.974436
v 0.041906 1.376449 1.100115
v 0.041906 1.407445 0.974436
v -0.574127 1.242457 0.974436
v -0.829176 1.046750 0.974436
v -0.855537 1.075471 0.812553
v -0.592564 1.277257 0.812553
v 0.302273 1.119517 2.005386
v 0.643626 1.215439 1.100115
v 0.353777 1.335498 1.100115
v 0.041906 1.153177 2.005386
v 0.041906 1.376449 1.100115
v 0.657939 1.242457 0.974436
v 0.912989 1.046750 0.974436
v 0.939349 1.075471 0.812553
v 0.676376 1.277257 0.812553
v 0.360927 1.365483 0.974436
v 0.041906 1.376449 1.100115
v 0.041906 1.407445 0.974436
v -0.315407 -1.151936 0.368214
v -0.326588 -1.145672 0.368350
v -0.327377 -1.252723 0.337786
v -0.339606 -1.250204 0.338278
v -0.339182 -1.296529 0.257561
v -0.351540 -1.294740 0.257844
v -0.339182 -1.296529 0.257561
v -0.351540 -1.294740 0.257844
v -0.323990 -1.431461 0.014925
v -0.351540 -1.294740 0.004074
v -0.351540 -1.294740 -0.054350
v -0.323990 -1.431461 -0.043499
v -0.323990 -1.431461 -0.043499
v -0.153667 -1.570338 -0.043499
v -0.153667 -1.570338 0.014925
v -0.323990 -1.431461 0.014925
v -0.153667 -1.570338 -0.043499
v 0.041906 -1.594740 -0.043499
v 0.041906 -1.594740 0.014925
v -0.153667 -1.570338 0.014925
v 0.041906 1.122555 2.073303
v 0.041906 0.514522 2.073303
v 0.136977 0.502623 2.073303
v 0.294347 1.089939 2.073303
v 0.221197 0.467738 2.073303
v 0.525213 0.994311 2.073303
v 0.293518 0.412245 2.073303
v 0.723462 0.842188 2.073303
v 0.349012 0.339923 2.073303
v 0.875584 0.643940 2.073303
v 0.383897 0.255703 2.073303
v 0.971212 0.413074 2.073303
v 0.395796 0.165324 2.073303
v 1.003829 0.165324 2.073303
v 0.383897 0.074946 2.073303
v 0.971212 -0.082425 2.073303
v 0.349012 -0.009274 2.073303
v 0.875584 -0.313291 2.073303
v 0.293518 -0.081596 2.073303
v 0.723462 -0.511540 2.073303
v 0.221197 -0.137089 2.073303
v 0.525213 -0.663661 2.073303
v 0.179087 -0.154532 2.073303
v 0.409780 -0.711475 2.073303
v 0.136977 -0.171974 2.073303
v 0.294348 -0.759289 2.073303
v 0.091788 -0.177924 2.073303
v 0.170473 -0.775597 2.073303
v 0.041906 -0.183873 2.073303
v 0.041906 -0.791906 2.073303
v 1.231722 -0.142777 0.974436
v 1.273683 0.175956 0.974436
v 1.244519 0.174660 1.100115
v 1.203570 -0.136386 1.100115
v 0.041906 -0.822528 2.005386
v 0.041906 -1.027128 1.100115
v 0.174436 -0.805698 2.005386
v 0.198254 -1.006653 1.100115
v 0.353777 -0.986178 1.100115
v 0.410400 -1.145672 0.368350
v 0.399219 -1.151936 0.368214
v 0.411189 -1.252723 0.337786
v 0.423419 -1.250204 0.338278
v 0.422994 -1.296529 0.257561
v 0.435352 -1.294740 0.257844
v 0.435352 -1.294740 0.257844
v 0.422994 -1.296529 0.257561
v 0.407802 -1.431461 0.014925
v 0.435352 -1.294740 0.004074
v 0.435352 -1.294740 -0.054350
v 0.407802 -1.431461 -0.043499
v 0.407802 -1.431461 -0.043499
v 0.407802 -1.431461 0.014925
v 0.237479 -1.570338 0.014925
v 0.237479 -1.570338 -0.043499
v 0.237479 -1.570338 -0.043499
v 0.237479 -1.570338 0.014925
v 0.041906 -1.594740 0.014925
v 0.041906 -1.594740 -0.043499
v -1.184171 0.506260 0.812553
v -1.024883 0.791700 0.974436
v -1.147909 0.494689 0.974436
v -1.227436 0.177625 0.812553
v -1.189871 0.175956 0.974436
v -1.184171 -0.151009 0.812553
v 0.041906 -0.183873 2.073303
v 0.041906 -0.212587 0.796278
v -0.053165 -0.171974 2.073303
v 0.136977 -0.171974 2.073303
v 0.041906 -0.199755 0.796278
v -0.137385 -0.137089 2.073303
v 0.221197 -0.137089 2.073303
v -0.024621 -0.162134 0.796278
v 0.108434 -0.162134 0.796278
v -0.209706 -0.081596 2.073303
v 0.293518 -0.081596 2.073303
v -0.102615 -0.102287 0.796278
v 0.186427 -0.102287 0.796278
v -0.265200 -0.009274 2.073303
v 0.349012 -0.009274 2.073303
v -0.162462 -0.024293 0.796278
v 0.246274 -0.024293 0.796278
v -0.300085 0.074946 2.073303
v 0.383897 0.074946 2.073303
v -0.200083 0.066533 0.796278
v 0.283895 0.066533 0.796278
v -0.311983 0.165324 2.073303
v 0.395796 0.165324 2.073303
v -0.212915 0.164001 0.796278
v 0.296727 0.164001 0.796278
v -0.300085 0.255703 2.073303
v 0.383897 0.255703 2.073303
v -0.200083 0.261469 0.796278
v 0.283895 0.261469 0.796278
v -0.265200 0.339923 2.073303
v 0.349012 0.339923 2.073303
v -0.162462 0.352294 0.796278
v 0.246274 0.352294 0.796278
v -0.209706 0.412245 2.073303
v 0.293518 0.412245 2.073303
v -0.102615 0.430288 0.796278
v 0.186427 0.430288 0.796278
v -0.137385 0.467738 2.073303
v 0.221197 0.467738 2.073303
v -0.024622 0.490135 0.796278
v 0.108434 0.490135 0.796278
v -0.053165 0.502623 2.073303
v 0.136977 0.502623 2.073303
v 0.041906 0.527756 0.796278
v 0.041906 0.514522 2.073303
v 0.041906 0.540588 0.796278
vn -0.4854 0.8418 0.2362
vn -0.4859 0.8415 0.2362
vn -0.2514 0.9381 0.2382
vn -0.2508 0.9382 0.2385
vn -0.0000 0.9710 0.2392
vn -0.0000 0.9710 0.2391
vn -0.2514 0.9381 0.2383
vn -0.6869 0.6880 0.2339
vn -0.6875 0.6875 0.2339
vn -0.8422 0.4870 0.2313
vn -0.8426 0.4863 0.2313
vn -0.8427 0.4863 0.2313
vn -0.8427 0.4862 0.2313
vn -0.9403 0.2519 0.2286
vn -0.9403 0.2520 0.2286
vn -0.8206 0.4733 0.3202
vn -0.9741 -0.0000 0.2261
vn -0.9156 0.2449 0.3189
vn -0.9482 -0.0004 0.3176
vn -0.9415 -0.2522 0.2238
vn -0.5537 0.1483 0.8194
vn -0.5733 -0.0000 0.8194
vn -0.4964 0.2867 0.8194
vn -0.5537 -0.1483 0.8194
vn -0.6699 0.6693 0.3215
vn -0.4053 0.4053 0.8194
vn -0.9162 -0.2459 0.3165
vn -0.4964 -0.2867 0.8194
vn -0.4736 0.8195 0.3227
vn -0.2867 0.4964 0.8194
vn -0.8444 -0.4876 0.2218
vn -0.9414 -0.2522 0.2238
vn -0.8216 -0.4747 0.3155
vn -0.4053 -0.4053 0.8194
vn -0.2441 0.9142 0.3236
vn -0.1477 0.5538 0.8195
vn -0.6710 -0.6713 0.3149
vn -0.2867 -0.4964 0.8194
vn -0.6897 -0.6897 0.2205
vn -0.8443 -0.4877 0.2218
vn -0.6897 -0.6897 0.2204
vn -0.4878 -0.8449 0.2197
vn -0.4879 -0.8448 0.2198
vn -0.4746 -0.8221 0.3145
vn -0.2082 -0.5026 0.8391
vn -0.3674 -0.9063 0.2089
vn -0.3578 -0.9085 0.2157
vn -0.2230 -0.9474 0.2296
vn -0.3633 -0.8770 0.3145
vn -0.1483 -0.5537 0.8194
vn -0.2551 -0.9442 0.2083
vn -0.2457 -0.9169 0.3145
vn -0.1270 -0.9677 0.2176
vn -0.0698 -0.5400 0.8388
vn -0.1324 -0.9666 0.2192
vn -0.1508 -0.9594 0.2385
vn -0.1355 -0.9662 0.2195
vn -0.0000 -0.9776 0.2105
vn -0.0000 -0.9755 0.2201
vn -0.0000 -0.9803 0.1976
vn 0.1355 -0.9662 0.2195
vn 0.1324 -0.9667 0.2192
vn 0.1509 -0.9594 0.2385
vn -0.1223 -0.9413 0.3146
vn -0.0000 -0.5722 0.8201
vn 0.2230 -0.9474 0.2296
vn -0.1271 -0.9677 0.2177
vn -0.2551 -0.9442 0.2084
vn -0.0000 -0.9492 0.3147
vn 0.1222 -0.9413 0.3146
vn 0.0698 -0.5400 0.8388
vn 0.2457 -0.9169 0.3144
vn 0.1483 -0.5537 0.8194
vn 0.1271 -0.9677 0.2175
vn 0.2551 -0.9442 0.2083
vn 0.3673 -0.9063 0.2090
vn 0.3578 -0.9085 0.2157
vn 0.4879 -0.8448 0.2197
vn 0.3633 -0.8770 0.3145
vn 0.2082 -0.5026 0.8391
vn 0.4746 -0.8221 0.3145
vn 0.2867 -0.4964 0.8194
vn 0.4878 -0.8449 0.2197
vn 0.6897 -0.6897 0.2204
vn 0.6710 -0.6713 0.3149
vn 0.4053 -0.4053 0.8194
vn 0.8443 -0.4878 0.2219
vn 0.8216 -0.4747 0.3155
vn 0.4964 -0.2867 0.8194
vn 0.8444 -0.4876 0.2218
vn 0.9414 -0.2522 0.2238
vn 0.9162 -0.2459 0.3165
vn 0.5537 -0.1483 0.8194
vn 0.9415 -0.2522 0.2238
vn 0.9482 -0.0004 0.3176
vn 0.5733 -0.0000 0.8194
vn 0.9741 -0.0000 0.2261
vn 0.9156 0.2449 0.3189
vn 0.5537 0.1483 0.8194
vn 0.8208 0.4729 0.3203
vn 0.4964 0.2867 0.8194
vn 0.9403 0.2519 0.2286
vn 0.6699 0.6693 0.3215
vn 0.4053 0.4053 0.8194
vn 0.8426 0.4863 0.2313
vn 0.6875 0.6875 0.2339
vn 0.8427 0.4862 0.2313
vn 0.4736 0.8195 0.3227
vn 0.2867 0.4964 0.8194
vn 0.9403 0.2520 0.2286
vn 0.9741 -0.0001 0.2261
vn 0.8427 0.4863 0.2313
vn 0.8422 0.4870 0.2313
vn 0.6869 0.6880 0.2339
vn 0.4859 0.8415 0.2362
vn 0.4854 0.8418 0.2362
vn 0.9401 0.2527 0.2287
vn 0.9404 0.2519 0.2286
vn 0.9741 0.0001 0.2261
vn 0.2517 0.9380 0.2382
vn 0.2506 0.9382 0.2386
vn 0.2515 0.9381 0.2383
vn 0.2514 0.9381 0.2383
vn 0.6897 -0.6897 0.2205
vn 0.6898 -0.6896 0.2204
vn 0.4878 -0.8448 0.2198
vn 0.8447 -0.4871 0.2218
vn 0.9416 -0.2516 0.2237
vn 0.6899 -0.6895 0.2205
vn 0.4879 -0.8448 0.2198
vn 0.9741 0.0008 0.2261
vn 0.4877 -0.8449 0.2197
vn 0.3811 -0.8978 0.2208
vn 0.3675 -0.9015 0.2288
vn 0.3487 -0.9088 0.2292
vn 0.3029 -0.9227 0.2383
vn 0.2063 -0.6434 0.7372
vn 0.2244 -0.9463 0.2329
vn 0.2243 -0.9463 0.2329
vn -0.9401 0.2527 0.2287
vn -0.9404 0.2519 0.2286
vn -0.9741 0.0008 0.2261
vn -0.9741 -0.0001 0.2261
vn -0.9416 -0.2516 0.2237
vn -0.8447 -0.4871 0.2218
vn -0.6899 -0.6895 0.2205
vn -0.8445 -0.4875 0.2219
vn -0.6895 -0.6900 0.2204
vn -0.4878 -0.8448 0.2198
vn -0.4877 -0.8449 0.2198
vn -0.3811 -0.8978 0.2208
vn -0.3675 -0.9015 0.2288
vn -0.3487 -0.9088 0.2292
vn -0.3029 -0.9227 0.2383
vn -0.2063 -0.6434 0.7372
vn -0.2244 -0.9463 0.2329
vn -0.4878 -0.8448 0.2197
vn -0.3029 -0.9228 0.2383
vn -0.2243 -0.9463 0.2329
vn -0.1509 -0.9594 0.2385
vn -0.0000 -0.0000 1.0000
vn -0.0000 0.5727 0.8197
vn -0.1477 0.5538 0.8194
vn -0.2866 0.4964 0.8194
vn -0.4964 0.2866 0.8194
vn -0.4964 -0.2866 0.8194
vn -0.2866 -0.4964 0.8194
vn -0.0000 -0.5721 0.8202
vn -0.0000 0.9460 0.3243
vn -0.0000 0.5727 0.8198
vn 0.1477 0.5538 0.8194
vn 0.2444 0.9140 0.3237
vn -0.2511 0.9382 0.2383
vn 0.1477 0.5538 0.8195
vn 0.2509 0.9382 0.2384
vn 0.2513 0.9381 0.2383
vn -0.2063 -0.6435 0.7372
vn -0.0768 -0.2732 0.9589
vn -0.1154 -0.6212 0.7751
vn -0.1134 -0.6020 0.7904
vn -0.6735 -0.6691 0.3143
vn -0.6607 -0.6783 0.3214
vn -0.6608 -0.6783 0.3214
vn -0.8895 -0.4567 0.0128
vn -0.9720 -0.2339 0.0214
vn -0.9803 -0.1975 -0.0000
vn -0.8607 -0.5092 -0.0000
vn -0.6319 -0.7750 -0.0000
vn -0.1238 -0.9923 -0.0000
vn 0.2866 0.4964 0.8194
vn 0.4964 0.2866 0.8194
vn 0.4964 -0.2866 0.8194
vn 0.2866 -0.4964 0.8194
vn 0.1271 -0.9677 0.2177
vn 0.2551 -0.9442 0.2084
vn 0.0768 -0.2732 0.9589
vn 0.2063 -0.6435 0.7372
vn 0.1154 -0.6212 0.7751
vn 0.1134 -0.6020 0.7904
vn 0.6735 -0.6691 0.3143
vn 0.6607 -0.6783 0.3214
vn 0.6608 -0.6783 0.3214
vn 0.8895 -0.4567 0.0128
vn 0.9720 -0.2339 0.0214
vn 0.9803 -0.1975 -0.0000
vn 0.8607 -0.5092 -0.0000
vn 0.6319 -0.7750 -0.0000
vn 0.1238 -0.9923 -0.0000
vn -0.0000 0.9999 -0.0124
vn -0.0001 0.9999 -0.0124
vn 0.3487 0.9372 0.0030
vn -0.3487 0.9372 0.0030
vn -0.0000 1.0000 0.0019
vn 0.5283 0.8486 0.0281
vn -0.5283 0.8486 0.0281
vn 0.5190 0.8544 0.0269
vn -0.5190 0.8544 0.0269
vn 0.7104 0.7022 0.0482
vn -0.7104 0.7022 0.0482
vn 0.7021 0.7105 0.0474
vn -0.7021 0.7105 0.0474
vn 0.8663 0.4954 0.0639
vn -0.8663 0.4954 0.0639
vn 0.8622 0.5026 0.0635
vn -0.8624 0.5023 0.0635
vn 0.9639 0.2560 0.0738
vn -0.9639 0.2560 0.0738
vn 0.9627 0.2603 0.0737
vn -0.9627 0.2603 0.0737
vn 0.9970 -0.0001 0.0773
vn -0.9970 -0.0001 0.0773
vn 0.9970 0.0001 0.0773
vn -0.9970 0.0001 0.0773
vn 0.9638 -0.2562 0.0743
vn -0.9638 -0.2562 0.0743
vn 0.9627 -0.2601 0.0742
vn -0.9627 -0.2601 0.0742
vn 0.8662 -0.4955 0.0649
vn -0.8662 -0.4955 0.0649
vn 0.8622 -0.5025 0.0645
vn -0.8622 -0.5025 0.0645
vn 0.7103 -0.7022 0.0496
vn -0.7103 -0.7022 0.0496
vn 0.7022 -0.7103 0.0488
vn -0.7022 -0.7103 0.0488
vn 0.5283 -0.8486 0.0299
vn -0.5283 -0.8486 0.0299
vn 0.5190 -0.8543 0.0287
vn -0.5190 -0.8543 0.0291
vn 0.3487 -0.9372 0.0049
vn -0.3487 -0.9372 0.0043
vn -0.0000 -1.0000 0.0041
vn -0.0000 -0.9999 -0.0102
vn -0.0000 -0.9999 -0.0103
vn -0.0000 -1.0000 -0.0000
vn -0.0000 -1.0000 0.0040
vn -0.0000 -0.9999 -0.0104
vt 0.279894 0.991217
vt 0.277555 0.994556
vt 0.280464 0.991248
vt 0.280451 0.991662
vt 0.279880 0.991666
vt 0.280464 0.992075
vt 0.280685 0.991217
vt 0.279894 0.992111
vt 0.280672 0.992062
vt 0.280660 0.991661
vt 0.280464 0.991248
vt 0.280672 0.991259
vt 0.277310 0.994212
vt 0.277981 0.994227
vt 0.277754 0.993909
vt 0.277086 0.993853
vt 0.281699 0.991217
vt 0.277548 0.993578
vt 0.282427 0.988434
vt 0.277917 0.993799
vt 0.277716 0.993478
vt 0.277847 0.993400
vt 0.278042 0.993713
vt 0.277671 0.993075
vt 0.277536 0.993145
vt 0.278786 0.992840
vt 0.277515 0.992739
vt 0.277376 0.992801
vt 0.278638 0.992576
vt 0.278512 0.992304
vt 0.277380 0.992393
vt 0.278716 0.992537
vt 0.278593 0.992270
vt 0.278860 0.992793
vt 0.278487 0.991995
vt 0.278960 0.993084
vt 0.277900 0.993466
vt 0.279029 0.993031
vt 0.278119 0.993762
vt 0.278405 0.992024
vt 0.278400 0.991713
vt 0.279151 0.993312
vt 0.279215 0.993255
vt 0.277268 0.992037
vt 0.277236 0.992445
vt 0.282403 0.987654
vt 0.282634 0.987210
vt 0.278316 0.991737
vt 0.278331 0.991426
vt 0.279357 0.993526
vt 0.279417 0.993464
vt 0.278357 0.994042
vt 0.278246 0.991444
vt 0.278282 0.991136
vt 0.277177 0.991674
vt 0.277121 0.992080
vt 0.277026 0.991709
vt 0.277105 0.991302
vt 0.276950 0.991331
vt 0.278196 0.991147
vt 0.278268 0.990991
vt 0.277077 0.991108
vt 0.276915 0.991140
vt 0.276793 0.990894
vt 0.278184 0.990998
vt 0.278256 0.990853
vt 0.277043 0.990910
vt 0.278170 0.990858
vt 0.276982 0.990705
vt 0.278258 0.990702
vt 0.276882 0.990719
vt 0.276782 0.990883
vt 0.281851 0.988627
vt 0.276868 0.990714
vt 0.276888 0.990495
vt 0.276953 0.990523
vt 0.276869 0.990496
vt 0.276837 0.990305
vt 0.276849 0.990298
vt 0.276715 0.990144
vt 0.281836 0.988779
vt 0.278169 0.990701
vt 0.278260 0.990550
vt 0.276724 0.990131
vt 0.276986 0.990704
vt 0.277046 0.990904
vt 0.276955 0.990521
vt 0.278169 0.990547
vt 0.278181 0.990378
vt 0.278276 0.990385
vt 0.278192 0.990211
vt 0.279880 0.992472
vt 0.278289 0.990222
vt 0.276979 0.990298
vt 0.276890 0.990494
vt 0.276955 0.990521
vt 0.276984 0.990085
vt 0.277008 0.989875
vt 0.276833 0.989851
vt 0.276865 0.989636
vt 0.278217 0.990045
vt 0.278315 0.990059
vt 0.278240 0.989877
vt 0.278337 0.989893
vt 0.277037 0.989666
vt 0.276955 0.989214
vt 0.278307 0.989546
vt 0.278403 0.989569
vt 0.277122 0.989255
vt 0.277069 0.988800
vt 0.278396 0.989221
vt 0.278489 0.989249
vt 0.277233 0.988852
vt 0.277209 0.988396
vt 0.282634 0.987177
vt 0.283096 0.989797
vt 0.278504 0.988902
vt 0.278596 0.988937
vt 0.277369 0.988458
vt 0.278633 0.988592
vt 0.278722 0.988632
vt 0.277531 0.988074
vt 0.278783 0.988291
vt 0.278868 0.988338
vt 0.278956 0.988001
vt 0.279037 0.988055
vt 0.277716 0.987703
vt 0.279159 0.987733
vt 0.279234 0.987794
vt 0.277982 0.987272
vt 0.278236 0.986948
vt 0.277922 0.987345
vt 0.279380 0.987483
vt 0.279450 0.987550
vt 0.277567 0.987620
vt 0.277377 0.988001
vt 0.277778 0.987254
vt 0.278012 0.986900
vt 0.278150 0.987000
vt 0.277593 0.987136
vt 0.282427 0.985952
vt 0.277834 0.986772
vt 0.277085 0.986814
vt 0.282854 0.991947
vt 0.277346 0.986419
vt 0.278097 0.986423
vt 0.277630 0.986041
vt 0.281713 0.992111
vt 0.282854 0.991499
vt 0.282284 0.991924
vt 0.282284 0.991510
vt 0.282403 0.986366
vt 0.282634 0.985973
vt 0.282610 0.986374
vt 0.282403 0.986780
vt 0.282610 0.986776
vt 0.282427 0.987193
vt 0.282284 0.992081
vt 0.282271 0.991667
vt 0.280672 0.991631
vt 0.281699 0.991663
vt 0.282284 0.991253
vt 0.281713 0.991217
vt 0.280893 0.991230
vt 0.280880 0.991632
vt 0.280685 0.992045
vt 0.280893 0.992034
vt 0.283066 0.990198
vt 0.282859 0.990187
vt 0.282890 0.989774
vt 0.282853 0.990601
vt 0.283060 0.990599
vt 0.282870 0.991015
vt 0.283076 0.991000
vt 0.282291 0.990157
vt 0.282324 0.989710
vt 0.282284 0.990606
vt 0.282945 0.989363
vt 0.282302 0.991054
vt 0.282383 0.989266
vt 0.283024 0.988957
vt 0.282469 0.988826
vt 0.282870 0.991015
vt 0.282324 0.991277
vt 0.282890 0.991221
vt 0.282343 0.991483
vt 0.282910 0.991427
vt 0.281851 0.988626
vt 0.282344 0.991499
vt 0.282910 0.991443
vt 0.283096 0.991200
vt 0.283061 0.991465
vt 0.283076 0.991000
vt 0.282870 0.991015
vt 0.281851 0.988781
vt 0.281836 0.988630
vt 0.281699 0.991666
vt 0.281129 0.991655
vt 0.281129 0.991241
vt 0.281775 0.988626
vt 0.281690 0.988186
vt 0.282330 0.988495
vt 0.282251 0.988088
vt 0.281630 0.987741
vt 0.282196 0.987678
vt 0.281597 0.987294
vt 0.282166 0.987265
vt 0.281590 0.986846
vt 0.282373 0.987254
vt 0.282159 0.986850
vt 0.281608 0.986398
vt 0.282366 0.986852
vt 0.282176 0.986437
vt 0.282383 0.986451
vt 0.282176 0.986437
vt 0.281630 0.986175
vt 0.282196 0.986231
vt 0.281649 0.985968
vt 0.282217 0.986025
vt 0.281867 0.988781
vt 0.281650 0.985952
vt 0.282217 0.986009
vt 0.282403 0.986251
vt 0.282367 0.985986
vt 0.282383 0.986451
vt 0.282176 0.986437
vt 0.281867 0.988626
vt 0.281851 0.988777
vt 0.282284 0.990458
vt 0.282284 0.991217
vt 0.282165 0.990443
vt 0.281968 0.991177
vt 0.282060 0.990399
vt 0.281680 0.991057
vt 0.281969 0.990330
vt 0.281432 0.990867
vt 0.281900 0.990240
vt 0.281242 0.990620
vt 0.281856 0.990134
vt 0.281123 0.990331
vt 0.281841 0.990022
vt 0.281082 0.990022
vt 0.281856 0.989909
vt 0.281123 0.989712
vt 0.281900 0.989803
vt 0.281242 0.989424
vt 0.281969 0.989713
vt 0.281432 0.989176
vt 0.282060 0.989644
vt 0.281680 0.988986
vt 0.282112 0.989622
vt 0.281824 0.988926
vt 0.282165 0.989600
vt 0.281968 0.988866
vt 0.282221 0.989593
vt 0.282123 0.988846
vt 0.282284 0.989585
vt 0.282284 0.988826
vt 0.282634 0.985952
vt 0.282795 0.985956
vt 0.282795 0.986348
vt 0.282634 0.986354
vt 0.278882 0.994552
vt 0.278612 0.994306
vt 0.279585 0.993727
vt 0.279639 0.993659
vt 0.279880 0.993831
vt 0.279685 0.987324
vt 0.279834 0.993904
vt 0.278507 0.994415
vt 0.278883 0.994555
vt 0.278785 0.994670
vt 0.278245 0.994145
vt 0.278002 0.993858
vt 0.277850 0.993981
vt 0.278102 0.994277
vt 0.279622 0.987251
vt 0.278510 0.986641
vt 0.278802 0.986353
vt 0.279880 0.987026
vt 0.279111 0.986084
vt 0.278389 0.986523
vt 0.278108 0.986837
vt 0.277942 0.986695
vt 0.278232 0.986372
vt 0.278688 0.986229
vt 0.279112 0.986083
vt 0.279005 0.985952
vt 0.281093 0.991223
vt 0.281109 0.991217
vt 0.281088 0.991355
vt 0.281103 0.991354
vt 0.281093 0.991470
vt 0.281109 0.991470
vt 0.281052 0.991613
vt 0.281067 0.991618
vt 0.280893 0.991921
vt 0.281067 0.991935
vt 0.281067 0.992008
vt 0.280893 0.991994
vt 0.282549 0.988434
vt 0.282549 0.988709
vt 0.282476 0.988709
vt 0.282476 0.988434
vt 0.281836 0.988772
vt 0.281590 0.988772
vt 0.281590 0.988699
vt 0.281836 0.988699
vt 0.281082 0.988826
vt 0.281082 0.989585
vt 0.280963 0.989600
vt 0.280766 0.988866
vt 0.280858 0.989644
vt 0.280478 0.988986
vt 0.280767 0.989713
vt 0.280230 0.989176
vt 0.280698 0.989803
vt 0.280040 0.989424
vt 0.280654 0.989909
vt 0.279921 0.989712
vt 0.280640 0.990022
vt 0.279880 0.990022
vt 0.280654 0.990134
vt 0.279921 0.990331
vt 0.280698 0.990240
vt 0.280040 0.990620
vt 0.280767 0.990330
vt 0.280230 0.990867
vt 0.280858 0.990399
vt 0.280478 0.991057
vt 0.280910 0.990421
vt 0.280622 0.991117
vt 0.280963 0.990443
vt 0.280766 0.991177
vt 0.281019 0.990450
vt 0.280921 0.991197
vt 0.281082 0.990458
vt 0.281082 0.991217
vt 0.282795 0.986354
vt 0.282795 0.986756
vt 0.282634 0.986749
vt 0.282634 0.986357
vt 0.279880 0.992144
vt 0.281039 0.992111
vt 0.279880 0.992311
vt 0.281039 0.992308
vt 0.281039 0.992504
vt 0.281129 0.991470
vt 0.281114 0.991465
vt 0.281109 0.991332
vt 0.281124 0.991333
vt 0.281114 0.991217
vt 0.281129 0.991218
vt 0.280893 0.991223
vt 0.280908 0.991217
vt 0.281067 0.991526
vt 0.280893 0.991540
vt 0.280893 0.991613
vt 0.281067 0.991599
vt 0.282476 0.988709
vt 0.282403 0.988709
vt 0.282403 0.988434
vt 0.282476 0.988434
vt 0.281836 0.988626
vt 0.281836 0.988699
vt 0.281590 0.988699
vt 0.281590 0.988626
vt 0.282403 0.988021
vt 0.282634 0.988414
vt 0.282610 0.988013
vt 0.282403 0.987607
vt 0.282610 0.987611
vt 0.282427 0.987193
vt 0.279880 0.987389
vt 0.281268 0.987389
vt 0.279887 0.987596
vt 0.279887 0.987182
vt 0.281452 0.987389
vt 0.279894 0.987708
vt 0.279894 0.987070
vt 0.281457 0.987483
vt 0.281457 0.987295
vt 0.279900 0.987820
vt 0.279900 0.986958
vt 0.281464 0.987604
vt 0.281464 0.987174
vt 0.279909 0.987932
vt 0.279909 0.986846
vt 0.281473 0.987725
vt 0.281473 0.987053
vt 0.279919 0.988044
vt 0.279919 0.986734
vt 0.281484 0.987845
vt 0.281484 0.986933
vt 0.279931 0.988156
vt 0.279931 0.986622
vt 0.281497 0.987966
vt 0.281497 0.986812
vt 0.279946 0.988267
vt 0.279946 0.986511
vt 0.281513 0.988086
vt 0.281513 0.986692
vt 0.279962 0.988378
vt 0.279962 0.986400
vt 0.281531 0.988205
vt 0.281531 0.986573
vt 0.279981 0.988489
vt 0.279981 0.986289
vt 0.281551 0.988325
vt 0.281551 0.986453
vt 0.280001 0.988599
vt 0.280001 0.986179
vt 0.281573 0.988444
vt 0.281573 0.986334
vt 0.280022 0.988710
vt 0.280022 0.986068
vt 0.281590 0.988537
vt 0.281590 0.986241
vt 0.282634 0.987966
vt 0.280044 0.988826
vt 0.280044 0.985952
vt 0.282655 0.986756
vt 0.282655 0.987966
s 1
usemtl Color
f 1/1/1 2/3/2 3/4/3
f 4/5/4 1/1/1 3/4/3
f 4/5/4 3/4/3 5/6/5
f 6/8/5 4/5/4 5/6/5
f 5/6/5 3/4/3 7/9/6
f 3/4/3 8/10/7 7/9/6
f 3/4/3 9/11/2 8/10/7
f 9/11/2 10/12/2 8/10/7
f 1/2/1 11/13/8 12/14/2
f 11/13/8 13/15/9 12/14/2
f 11/13/8 14/16/10 13/15/9
f 14/16/10 15/18/11 13/15/9
f 13/15/9 15/18/11 16/20/9
f 15/18/11 17/21/12 16/20/9
f 17/21/12 18/22/13 16/20/9
f 18/22/13 19/23/9 16/20/9
f 20/24/14 18/22/13 17/21/12
f 21/25/15 20/24/14 17/21/12
f 18/22/13 20/24/14 22/26/16
f 23/27/17 20/24/14 21/25/15
f 24/28/17 23/27/17 21/25/15
f 20/24/14 23/27/17 25/29/18
f 20/24/14 25/29/18 22/26/16
f 23/27/17 26/30/19 25/29/18
f 23/27/17 27/31/20 26/30/19
f 25/29/18 28/32/21 22/26/16
f 29/33/22 28/32/21 25/29/18
f 26/30/19 29/33/22 25/29/18
f 28/32/21 30/34/23 22/26/16
f 31/35/24 29/33/22 26/30/19
f 22/26/16 30/34/23 32/36/25
f 33/37/11 22/26/16 32/36/25
f 30/34/23 34/38/26 32/36/25
f 35/39/9 33/37/11 32/36/25
f 36/40/27 31/35/24 26/30/19
f 27/31/20 36/40/27 26/30/19
f 37/41/28 31/35/24 36/40/27
f 32/36/25 34/38/26 38/42/29
f 35/39/9 32/36/25 38/42/29
f 34/38/26 39/43/30 38/42/29
f 27/31/20 40/44/31 36/40/27
f 40/44/31 27/31/20 41/45/32
f 42/48/33 37/41/28 36/40/27
f 40/44/31 42/48/33 36/40/27
f 43/49/34 37/41/28 42/48/33
f 38/42/29 39/43/30 44/50/35
f 39/43/30 45/51/36 44/50/35
f 46/52/2 35/39/9 38/42/29
f 46/52/2 38/42/29 44/50/35
f 47/53/37 43/49/34 42/48/33
f 48/54/38 43/49/34 47/53/37
f 40/44/31 49/55/39 42/48/33
f 49/55/39 47/53/37 42/48/33
f 50/56/40 40/44/31 41/45/32
f 49/55/39 40/44/31 50/56/40
f 51/57/41 49/55/39 50/56/40
f 52/58/42 49/55/39 51/57/41
f 49/55/39 52/58/42 47/53/37
f 53/59/43 52/58/42 51/57/41
f 54/60/44 48/54/38 47/53/37
f 52/58/42 54/60/44 47/53/37
f 55/61/45 48/54/38 54/60/44
f 56/62/46 52/58/42 53/59/43
f 52/58/42 56/62/46 54/60/44
f 57/63/47 56/62/46 53/59/43
f 57/63/47 58/64/48 56/62/46
f 59/65/49 55/61/45 54/60/44
f 56/62/46 59/65/49 54/60/44
f 60/66/50 55/61/45 59/65/49
f 56/62/46 61/67/51 59/65/49
f 58/64/48 61/67/51 56/62/46
f 62/68/52 60/66/50 59/65/49
f 61/67/51 62/68/52 59/65/49
f 63/69/53 61/67/51 58/64/48
f 64/70/54 60/66/50 62/68/52
f 65/71/55 63/69/53 58/64/48
f 65/71/55 58/64/48 66/72/56
f 67/74/57 65/71/55 66/72/56
f 65/71/55 68/75/58 63/69/53
f 68/75/58 65/71/55 67/74/57
f 68/75/58 69/76/59 63/69/53
f 70/77/60 68/75/58 67/74/57
f 68/75/58 70/77/60 71/78/61
f 72/79/62 68/75/58 71/78/61
f 72/79/62 71/78/61 73/80/63
f 74/82/64 64/70/54 62/68/52
f 75/83/65 64/70/54 74/82/64
f 76/84/66 72/79/62 73/80/63
f 77/85/67 74/82/64 62/68/52
f 78/86/68 77/85/67 62/68/52
f 77/85/67 79/87/59 74/82/64
f 79/87/59 80/88/69 74/82/64
f 80/88/69 75/83/65 74/82/64
f 75/83/65 80/88/69 81/89/70
f 82/90/71 75/83/65 81/89/70
f 82/90/71 81/89/70 83/91/72
f 84/93/73 82/90/71 83/91/72
f 85/94/74 72/79/62 76/84/66
f 86/95/58 72/79/62 85/94/74
f 87/96/59 86/95/58 85/94/74
f 88/97/75 85/94/74 76/84/66
f 88/97/75 76/84/66 89/98/76
f 76/84/66 90/99/77 89/98/76
f 89/98/76 90/99/77 91/100/78
f 84/93/73 83/91/72 92/101/79
f 83/91/72 88/97/75 92/101/79
f 88/97/75 89/98/76 92/101/79
f 93/102/80 84/93/73 92/101/79
f 93/102/80 92/101/79 94/103/81
f 92/101/79 89/98/76 94/103/81
f 95/104/82 93/102/80 94/103/81
f 96/105/83 89/98/76 91/100/78
f 89/98/76 96/105/83 94/103/81
f 96/105/83 91/100/78 97/106/84
f 95/104/82 94/103/81 98/107/85
f 94/103/81 96/105/83 98/107/85
f 99/108/86 95/104/82 98/107/85
f 100/109/84 96/105/83 97/106/84
f 96/105/83 100/109/84 98/107/85
f 100/109/84 97/106/84 101/110/87
f 99/108/86 98/107/85 102/111/88
f 98/107/85 100/109/84 102/111/88
f 103/112/89 99/108/86 102/111/88
f 104/113/90 100/109/84 101/110/87
f 100/109/84 104/113/90 102/111/88
f 104/113/90 101/110/87 105/114/91
f 103/112/89 102/111/88 106/117/92
f 102/111/88 104/113/90 106/117/92
f 107/118/93 103/112/89 106/117/92
f 104/113/90 108/119/94 106/117/92
f 108/119/94 104/113/90 105/114/91
f 107/118/93 106/117/92 109/120/95
f 106/117/92 108/119/94 109/120/95
f 110/121/96 107/118/93 109/120/95
f 108/119/94 111/122/97 109/120/95
f 110/121/96 109/120/95 112/123/98
f 109/120/95 111/122/97 112/123/98
f 113/124/99 110/121/96 112/123/98
f 113/124/99 112/123/98 114/125/100
f 115/126/101 113/124/99 114/125/100
f 111/122/97 116/127/102 112/123/98
f 112/123/98 116/127/102 114/125/100
f 115/126/101 114/125/100 117/128/103
f 118/129/104 115/126/101 117/128/103
f 114/125/100 119/130/105 117/128/103
f 119/130/105 120/131/106 117/128/103
f 116/127/102 121/132/107 114/125/100
f 118/129/104 117/128/103 122/133/108
f 117/128/103 120/131/106 122/133/108
f 123/134/109 118/129/104 122/133/108
f 116/127/102 111/122/97 124/135/110
f 111/122/97 125/136/111 124/135/110
f 116/127/102 124/135/110 126/137/112
f 121/132/107 116/127/102 126/137/112
f 121/132/107 126/137/112 127/138/106
f 128/139/106 121/132/107 127/138/106
f 126/137/112 129/140/105 127/138/106
f 129/140/105 130/142/106 127/138/106
f 129/140/105 131/143/113 130/142/106
f 131/143/113 132/145/114 130/142/106
f 130/142/106 132/145/114 133/146/115
f 132/145/114 134/147/116 133/146/115
f 135/149/117 131/144/113 136/150/105
f 137/151/118 135/149/117 136/150/105
f 138/152/110 129/141/105 139/153/105
f 140/154/110 138/152/110 139/153/105
f 141/155/119 138/152/110 140/154/110
f 142/156/111 141/155/119 140/154/110
f 143/157/91 141/155/119 142/156/111
f 105/115/91 143/157/91 142/156/111
f 144/158/115 134/148/116 145/159/120
f 134/148/116 146/161/121 145/159/120
f 145/159/120 146/161/121 147/162/5
f 146/161/121 148/163/5 147/162/5
f 145/160/122 5/7/5 149/164/6
f 150/165/123 145/160/122 149/164/6
f 151/166/115 145/160/122 150/165/123
f 152/167/115 151/166/115 150/165/123
f 153/168/90 154/169/90 105/116/91
f 154/169/90 155/170/94 105/116/91
f 156/171/124 154/169/90 153/168/90
f 157/172/125 156/171/124 153/168/90
f 158/173/126 156/171/124 157/172/125
f 159/174/126 158/173/126 157/172/125
f 154/169/90 160/175/127 155/170/94
f 160/175/127 161/176/128 155/170/94
f 162/177/129 160/175/127 154/169/90
f 156/171/124 162/177/129 154/169/90
f 155/170/94 161/176/128 163/178/111
f 164/179/130 162/177/129 156/171/124
f 161/176/128 165/180/131 163/178/111
f 163/178/111 165/180/131 166/181/118
f 165/180/131 167/182/117 166/181/118
f 168/183/132 164/179/130 156/171/124
f 169/184/133 164/179/130 168/183/132
f 170/185/134 169/184/133 168/183/132
f 171/186/135 169/184/133 170/185/134
f 172/187/136 171/186/135 170/185/134
f 171/186/135 172/187/136 173/189/137
f 172/187/136 174/190/138 173/189/137
f 172/187/136 170/185/134 175/191/77
f 176/192/66 172/187/136 175/191/77
f 175/191/77 170/185/134 177/193/126
f 170/185/134 178/194/126 177/193/126
f 172/188/136 179/195/66 180/196/139
f 179/195/66 73/81/63 180/196/139
f 181/197/140 182/198/141 183/199/11
f 14/17/10 181/197/140 183/199/11
f 184/200/140 185/201/142 186/202/141
f 185/201/142 187/203/143 186/202/141
f 185/201/142 188/204/144 187/203/143
f 188/204/144 189/205/20 187/203/143
f 188/204/144 190/206/145 189/205/20
f 190/206/145 191/207/31 189/205/20
f 189/205/20 191/207/31 41/46/32
f 190/206/145 192/208/146 191/207/31
f 191/207/31 193/209/147 41/46/32
f 192/208/146 194/210/41 191/207/31
f 191/207/31 194/210/41 193/209/147
f 192/208/146 195/211/43 194/210/41
f 194/210/41 196/212/148 193/209/147
f 194/210/41 197/213/149 196/212/148
f 197/213/149 198/214/149 196/212/148
f 195/211/43 199/215/150 194/210/41
f 195/211/43 200/216/151 199/215/150
f 200/216/151 201/217/152 199/215/150
f 200/216/151 202/218/153 201/217/152
f 202/218/153 203/219/154 201/217/152
f 203/219/154 202/218/153 204/221/155
f 205/222/156 203/219/154 204/221/155
f 201/217/152 203/219/154 206/223/47
f 203/219/154 207/224/48 206/223/47
f 201/217/152 206/223/47 208/225/149
f 209/226/157 201/217/152 208/225/149
f 210/227/48 203/220/158 211/228/159
f 66/73/160 210/227/48 211/228/159
f 212/229/161 213/230/162 214/231/161
f 213/230/162 215/232/163 214/231/161
f 214/231/161 215/232/163 216/233/161
f 215/232/163 217/234/164 216/233/161
f 216/233/161 217/234/164 218/235/161
f 217/234/164 219/236/26 218/235/161
f 218/235/161 219/236/26 220/237/161
f 219/236/26 221/238/165 220/237/161
f 220/237/161 221/238/165 222/239/161
f 221/238/165 223/240/21 222/239/161
f 222/239/161 223/240/21 224/241/161
f 223/240/21 225/242/22 224/241/161
f 224/241/161 225/242/22 226/243/161
f 225/242/22 227/244/24 226/243/161
f 226/243/161 227/244/24 228/245/161
f 227/244/24 229/246/166 228/245/161
f 228/245/161 229/246/166 230/247/161
f 229/246/166 231/248/34 230/247/161
f 230/247/161 231/248/34 232/249/161
f 231/248/34 233/250/167 232/249/161
f 232/249/161 233/250/167 234/251/161
f 233/250/167 235/252/45 234/251/161
f 234/251/161 235/252/45 236/253/161
f 235/252/45 237/254/50 236/253/161
f 236/253/161 237/254/50 238/255/161
f 237/254/50 239/256/54 238/255/161
f 238/255/161 239/256/54 240/257/161
f 239/256/54 241/258/168 240/257/161
f 242/259/20 243/260/20 244/261/17
f 245/262/17 242/259/20 244/261/17
f 246/263/6 247/264/4 248/265/169
f 247/264/4 44/50/35 248/265/169
f 44/50/35 45/51/36 248/265/169
f 45/51/36 249/266/170 248/265/169
f 249/266/170 250/267/171 248/265/169
f 250/267/171 251/269/172 248/265/169
f 247/264/4 46/52/2 44/50/35
f 46/52/2 247/264/4 252/270/173
f 252/270/173 247/264/4 253/271/6
f 254/272/6 252/270/173 253/271/6
f 255/273/2 46/52/2 252/270/173
f 35/39/9 46/52/2 255/273/2
f 256/274/9 35/39/9 255/273/2
f 257/275/9 256/274/9 255/273/2
f 258/276/2 257/275/9 255/273/2
f 250/268/174 123/134/109 259/277/172
f 123/134/109 122/133/108 259/277/172
f 122/133/108 260/278/115 259/277/172
f 120/131/106 260/278/115 122/133/108
f 260/278/115 261/279/175 259/277/172
f 259/277/172 261/279/175 262/280/169
f 261/279/175 263/281/6 262/280/169
f 260/278/115 120/131/106 264/282/115
f 120/131/106 265/283/106 264/282/115
f 265/283/106 266/284/106 264/282/115
f 266/284/106 267/285/115 264/282/115
f 260/278/115 264/282/115 268/286/176
f 261/279/175 260/278/115 268/286/176
f 261/279/175 268/286/176 269/287/6
f 268/286/176 270/288/6 269/287/6
f 271/289/177 272/290/178 273/291/179
f 272/290/178 274/292/180 273/291/179
f 273/291/179 274/292/180 275/293/181
f 274/292/180 276/294/182 275/293/181
f 277/295/181 278/296/183 279/297/184
f 278/296/183 280/298/185 279/297/184
f 280/298/185 281/299/186 279/297/184
f 281/299/186 282/300/187 279/297/184
f 283/301/188 284/302/188 285/303/188
f 286/304/188 283/301/188 285/303/188
f 287/305/189 288/306/189 289/307/189
f 290/308/189 287/305/189 289/307/189
f 291/309/162 292/310/161 293/311/161
f 294/312/171 291/309/162 293/311/161
f 294/312/171 293/311/161 295/313/161
f 296/314/190 294/312/171 295/313/161
f 296/314/190 295/313/161 297/315/161
f 298/316/104 296/314/190 297/315/161
f 298/316/104 297/315/161 299/317/161
f 300/318/191 298/316/104 299/317/161
f 300/318/191 299/317/161 301/319/161
f 302/320/99 300/318/191 301/319/161
f 302/320/99 301/319/161 303/321/161
f 304/322/96 302/320/99 303/321/161
f 304/322/96 303/321/161 305/323/161
f 306/324/93 304/322/96 305/323/161
f 306/324/93 305/323/161 307/325/161
f 308/326/192 306/324/93 307/325/161
f 308/326/192 307/325/161 309/327/161
f 310/328/86 308/326/192 309/327/161
f 310/328/86 309/327/161 311/329/161
f 312/330/193 310/328/86 311/329/161
f 312/330/193 311/329/161 313/331/161
f 314/332/80 312/330/193 313/331/161
f 314/332/80 313/331/161 315/333/161
f 316/334/73 314/332/80 315/333/161
f 316/334/73 315/333/161 317/335/161
f 318/336/71 316/334/73 317/335/161
f 318/336/71 317/335/161 319/337/161
f 320/338/168 318/336/71 319/337/161
f 321/339/91 322/340/97 323/341/97
f 324/342/91 321/339/91 323/341/97
f 325/343/69 326/344/59 327/345/70
f 326/344/59 328/346/194 327/345/70
f 327/345/70 328/346/194 83/92/72
f 328/346/194 329/347/195 83/92/72
f 330/348/196 331/349/197 332/350/198
f 333/351/199 330/348/196 332/350/198
f 333/351/199 332/350/198 334/352/200
f 335/353/201 333/351/199 334/352/200
f 336/354/202 337/355/200 338/356/203
f 339/357/204 336/354/202 338/356/203
f 340/358/205 339/357/204 338/356/203
f 341/359/206 340/358/205 338/356/203
f 342/360/207 343/361/207 344/362/207
f 345/363/207 342/360/207 344/362/207
f 346/364/208 347/365/208 348/366/208
f 349/367/208 346/364/208 348/366/208
f 15/19/11 350/368/141 351/369/11
f 350/368/141 352/370/141 351/369/11
f 350/368/141 353/371/17 352/370/141
f 353/371/17 354/372/143 352/370/141
f 353/371/17 355/373/32 354/372/143
f 355/373/32 41/47/20 354/372/143
f 356/374/209 357/375/210 358/376/211
f 357/375/210 356/374/209 359/377/212
f 357/375/210 360/378/213 358/376/211
f 360/378/213 357/375/210 359/377/212
f 358/376/211 360/378/213 361/379/214
f 360/378/213 359/377/212 362/380/215
f 360/378/213 363/381/216 361/379/214
f 364/382/217 360/378/213 362/380/215
f 361/379/214 363/381/216 365/383/218
f 364/382/217 362/380/215 366/384/219
f 363/381/216 367/385/220 365/383/218
f 368/386/221 364/382/217 366/384/219
f 365/383/218 367/385/220 369/387/222
f 368/386/221 366/384/219 370/388/223
f 367/385/220 371/389/224 369/387/222
f 372/390/225 368/386/221 370/388/223
f 369/387/222 371/389/224 373/391/226
f 372/390/225 370/388/223 374/392/227
f 371/389/224 375/393/228 373/391/226
f 376/394/229 372/390/225 374/392/227
f 373/391/226 375/393/228 377/395/230
f 376/394/229 374/392/227 378/396/231
f 375/393/228 379/397/232 377/395/230
f 380/398/233 376/394/229 378/396/231
f 377/395/230 379/397/232 381/399/234
f 380/398/233 378/396/231 382/400/235
f 379/397/232 383/401/236 381/399/234
f 384/402/237 380/398/233 382/400/235
f 381/399/234 383/401/236 385/403/238
f 384/402/237 382/400/235 386/404/239
f 383/401/236 387/405/240 385/403/238
f 388/406/241 384/402/237 386/404/239
f 385/403/238 387/405/240 389/407/242
f 388/406/241 386/404/239 390/408/243
f 387/405/240 391/409/244 389/407/242
f 392/410/245 388/406/241 390/408/243
f 389/407/242 391/409/244 393/411/246
f 392/410/245 390/408/243 394/412/247
f 391/409/244 395/413/248 393/411/246
f 396/414/249 392/410/245 394/412/247
f 393/411/246 395/413/248 397/415/250
f 396/414/249 394/412/247 398/416/251
f 395/413/248 399/417/252 397/415/250
f 399/418/252 396/414/249 398/416/251
f 397/415/250 399/417/252 400/420/253
f 399/418/252 398/416/251 400/421/254
f 401/423/255 399/419/256 400/422/257
